NBA Daily Fantasy Exploration
…
The distributions for the rolling variables look similar to the base minutes distribution. They differ in that the rolling minutes have fewer occurences of low-minute games. Low-minute games (i.e <5 min) are presumably due to cases where a player was injured mid-game, a player was brought in to close a blow-out game, or the player was pulled due to poor play. Intuitevely, these cases should not occur over consecutive games.

The formula for FD points was shown earlier. The plots below show how the distributions of relevent statistics varies between positions.

player_data[, grouped_posn := ifelse(position %in% c('PG','SG','SF'),1,2)]

## Source: local data table [103,233 x 74]
## 
## # tbl_dt [103,233 x 74]
##                                   gameID opponent  3FGA  3FGM   FGA   FGM
##                                   <fctr>   <fctr> <int> <int> <int> <int>
## 1  20121030-boston-celtics-at-miami-heat      BOS     1     0    15     8
## 2  20121030-boston-celtics-at-miami-heat      BOS     0     0    22    10
## 3  20121030-boston-celtics-at-miami-heat      BOS     4     2    16    10
## 4  20121030-boston-celtics-at-miami-heat      BOS     1     0     7     3
## 5  20121030-boston-celtics-at-miami-heat      BOS     0     0     0     0
## 6  20121030-boston-celtics-at-miami-heat      BOS     2     1     2     1
## 7  20121030-boston-celtics-at-miami-heat      BOS     2     1     5     4
## 8  20121030-boston-celtics-at-miami-heat      BOS     3     2     7     5
## 9  20121030-boston-celtics-at-miami-heat      BOS     3     2     4     2
## 10 20121030-boston-celtics-at-miami-heat      BOS     0     0     1     0
## # ... with 103,223 more rows, and 68 more variables: FTA <int>, FTM <int>,
## #   assists <int>, blocks <int>, date <date>, fouls <int>, minutes <int>,
## #   player <fctr>, points <int>, position <fctr>, rebounds <int>,
## #   starter <int>, steals <int>, team <fctr>, turnovers <int>, fd <dbl>,
## #   date_num <dbl>, season_code <dbl>, home_team <fctr>, away_team <fctr>,
## #   homeaway <dbl>, fd_5 <dbl>, fd_15 <dbl>, fd_25 <dbl>, fd_35 <dbl>,
## #   fd_45 <dbl>, fd_55 <dbl>, minutes_5 <dbl>, minutes_15 <dbl>,
## #   minutes_25 <dbl>, minutes_35 <dbl>, minutes_45 <dbl>,
## #   minutes_55 <dbl>, FGA_5 <dbl>, FGA_15 <dbl>, FGA_25 <dbl>,
…
